Class Presentation(DB),Classwork,00:00 28-02-2021,00:00 01-03-2021,3-Moderate,Not started yet,N. Yaiying
Make a call to Insuarance Company,Document-related Task,00:00 28-02-2021,00:00 01-03-2021,3-Moderate,Not started yet,FWD Insurance CO.LTD.
Researching Data(DB),Homework,00:00 28-02-2021,00:00 01-03-2021,3-Moderate,Not started yet,S. Khonram
Researching Data(AS),Homework,00:00 28-02-2021,00:00 01-03-2021,3-Moderate,Not started yet,F. Srisaard
Get The Conscription Paper,Document-related Task,00:00 28-02-2021,00:00 01-03-2021,3-Moderate,Not started yet,Territorial Defense School