Task Tracker,Homework,14:00 12-01-2021,16:00 21-03-2021,1-Most,Ongoing,C. Pipopsophonchai
database naomi shop project,Homework,15:30 11-01-2021,23:00 06-04-2021,1-Most,Ongoing,S. Khonram
RAM DDR4 Assembly,Homework,00:30 10-03-2021,23:59 26-03-2021,1-Most,Ongoing,C. Pipopsophonchai
KUJPC Meeting,Document-related Task,17:30 19-03-2021,18:00 19-03-2021,3-Moderate,Done,KUJPC
AFS Speaking Exam Rehersal,Document-related Task,10:00 01-04-2021,16:00 01-04-2021,3-Moderate,Not started yet,Bodindecha School